<?xml version="1.0" encoding="UTF-8"?>
<svg xmlns="http://www.w3.org/2000/svg"
     xmlns:xlink="http://www.w3.org/1999/xlink"
     xmlns:gadfly="http://www.gadflyjl.org/ns"
     version="1.2"
     width="140mm" height="80mm" viewBox="0 0 140 80"
     stroke="none"
     fill="#000000"
     stroke-width="0.3"
     font-size="3.88"
>
<defs>
  <marker id="arrow" markerWidth="15" markerHeight="7" refX="5" refY="3.5" orient="auto" markerUnits="strokeWidth">
    <path d="M0,0 L15,3.5 L0,7 z" stroke="context-stroke" fill="context-stroke"/>
  </marker>
</defs>
<g class="plotroot xscalable yscalable" id="img-02234e32-1">
  <g font-size="3.88" font-family="'PT Sans','Helvetica Neue','Helvetica',sans-serif" fill="#564A55" stroke="#000000" stroke-opacity="0.000" id="img-02234e32-2">
    <g transform="translate(76.82,68.39)">
      <g class="primitive">
        <text text-anchor="middle" dy="0.6em">SepalLength</text>
      </g>
    </g>
  </g>
  <g class="guide xlabels" font-size="2.82" font-family="'PT Sans Caption','Helvetica Neue','Helvetica',sans-serif" fill="#6C606B" id="img-02234e32-3">
    <g transform="translate(20.63,61.72)">
      <g class="primitive">
        <text text-anchor="middle" dy="0.6em">4</text>
      </g>
    </g>
    <g transform="translate(48.72,61.72)">
      <g class="primitive">
        <text text-anchor="middle" dy="0.6em">5</text>
      </g>
    </g>
    <g transform="translate(76.82,61.72)">
      <g class="primitive">
        <text text-anchor="middle" dy="0.6em">6</text>
      </g>
    </g>
    <g transform="translate(104.91,61.72)">
      <g class="primitive">
        <text text-anchor="middle" dy="0.6em">7</text>
      </g>
    </g>
    <g transform="translate(133,61.72)">
      <g class="primitive">
        <text text-anchor="middle" dy="0.6em">8</text>
      </g>
    </g>
  </g>
  <g clip-path="url(#img-02234e32-4)">
    <g id="img-02234e32-5">
      <g pointer-events="visible" fill="#000000" fill-opacity="0.000" stroke="#000000" stroke-opacity="0.000" class="guide background" id="img-02234e32-6">
        <g transform="translate(76.82,32.86)" id="img-02234e32-7">
          <path d="M-58.18,-27.86 L 58.18 -27.86 58.18 27.86 -58.18 27.86 z" class="primitive"/>
        </g>
      </g>
      <g class="guide ygridlines xfixed" stroke-dasharray="0.5,0.5" stroke-width="0.2" stroke="#D0D0E0" id="img-02234e32-8">
        <g transform="translate(76.82,58.72)" id="img-02234e32-9">
          <path fill="none" d="M-58.18,0 L 58.18 0" class="primitive"/>
        </g>
        <g transform="translate(76.82,48.37)" id="img-02234e32-10">
          <path fill="none" d="M-58.18,0 L 58.18 0" class="primitive"/>
        </g>
        <g transform="translate(76.82,38.03)" id="img-02234e32-11">
          <path fill="none" d="M-58.18,0 L 58.18 0" class="primitive"/>
        </g>
        <g transform="translate(76.82,27.69)" id="img-02234e32-12">
          <path fill="none" d="M-58.18,0 L 58.18 0" class="primitive"/>
        </g>
        <g transform="translate(76.82,17.34)" id="img-02234e32-13">
          <path fill="none" d="M-58.18,0 L 58.18 0" class="primitive"/>
        </g>
        <g transform="translate(76.82,7)" id="img-02234e32-14">
          <path fill="none" d="M-58.18,0 L 58.18 0" class="primitive"/>
        </g>
      </g>
      <g class="guide xgridlines yfixed" stroke-dasharray="0.5,0.5" stroke-width="0.2" stroke="#D0D0E0" id="img-02234e32-15">
        <g transform="translate(20.63,32.86)" id="img-02234e32-16">
          <path fill="none" d="M0,-27.86 L 0 27.86" class="primitive"/>
        </g>
        <g transform="translate(48.72,32.86)" id="img-02234e32-17">
          <path fill="none" d="M0,-27.86 L 0 27.86" class="primitive"/>
        </g>
        <g transform="translate(76.82,32.86)" id="img-02234e32-18">
          <path fill="none" d="M0,-27.86 L 0 27.86" class="primitive"/>
        </g>
        <g transform="translate(104.91,32.86)" id="img-02234e32-19">
          <path fill="none" d="M0,-27.86 L 0 27.86" class="primitive"/>
        </g>
        <g transform="translate(133,32.86)" id="img-02234e32-20">
          <path fill="none" d="M0,-27.86 L 0 27.86" class="primitive"/>
        </g>
      </g>
      <g class="plotpanel" id="img-02234e32-21">
        <metadata>
          <boundingbox value="18.63166666666666mm 5.0mm 116.36833333333334mm 55.715mm"/>
          <unitbox value="3.928805565031667 4.596683747462052 4.142388869936666 -2.6933674949241033"/>
        </metadata>
        <g class="geometry" id="img-02234e32-22">
          <g stroke-width="0.3" id="img-02234e32-23">
            <g class="color_RGBA{Float32}(0.0f0,0.74736935f0,1.0f0,1.0f0)" fill-opacity="1" stroke="#FFFFFF" fill="#00BFFF" id="img-02234e32-24">
              <g class="marker" id="img-02234e32-25">
                <g transform="translate(74.01,38.03)" id="img-02234e32-26">
                  <circle cx="0" cy="0" r="0.9" class="primitive"/>
                </g>
              </g>
            </g>
            <g class="color_RGBA{Float32}(0.0f0,0.74736935f0,1.0f0,1.0f0)" fill-opacity="1" stroke="#FFFFFF" fill="#00BFFF" id="img-02234e32-27">
              <g class="marker" id="img-02234e32-28">
                <g transform="translate(82.43,29.75)" id="img-02234e32-29">
                  <circle cx="0" cy="0" r="0.9" class="primitive"/>
                </g>
              </g>
            </g>
            <g class="color_RGBA{Float32}(0.0f0,0.74736935f0,1.0f0,1.0f0)" fill-opacity="1" stroke="#FFFFFF" fill="#00BFFF" id="img-02234e32-30">
              <g class="marker" id="img-02234e32-31">
                <g transform="translate(90.86,38.03)" id="img-02234e32-32">
                  <circle cx="0" cy="0" r="0.9" class="primitive"/>
                </g>
              </g>
            </g>
            <g class="color_RGBA{Float32}(0.0f0,0.74736935f0,1.0f0,1.0f0)" fill-opacity="1" stroke="#FFFFFF" fill="#00BFFF" id="img-02234e32-33">
              <g class="marker" id="img-02234e32-34">
                <g transform="translate(85.24,48.37)" id="img-02234e32-35">
                  <circle cx="0" cy="0" r="0.9" class="primitive"/>
                </g>
              </g>
            </g>
            <g class="color_RGBA{Float32}(0.0f0,0.74736935f0,1.0f0,1.0f0)" fill-opacity="1" stroke="#FFFFFF" fill="#00BFFF" id="img-02234e32-36">
              <g class="marker" id="img-02234e32-37">
                <g transform="translate(96.48,38.03)" id="img-02234e32-38">
                  <circle cx="0" cy="0" r="0.9" class="primitive"/>
                </g>
              </g>
            </g>
            <g class="color_RGBA{Float32}(0.0f0,0.74736935f0,1.0f0,1.0f0)" fill-opacity="1" stroke="#FFFFFF" fill="#00BFFF" id="img-02234e32-39">
              <g class="marker" id="img-02234e32-40">
                <g transform="translate(96.48,31.82)" id="img-02234e32-41">
                  <circle cx="0" cy="0" r="0.9" class="primitive"/>
                </g>
              </g>
            </g>
            <g class="color_RGBA{Float32}(0.0f0,0.74736935f0,1.0f0,1.0f0)" fill-opacity="1" stroke="#FFFFFF" fill="#00BFFF" id="img-02234e32-42">
              <g class="marker" id="img-02234e32-43">
                <g transform="translate(99.29,33.89)" id="img-02234e32-44">
                  <circle cx="0" cy="0" r="0.9" class="primitive"/>
                </g>
              </g>
            </g>
            <g class="color_RGBA{Float32}(0.0f0,0.74736935f0,1.0f0,1.0f0)" fill-opacity="1" stroke="#FFFFFF" fill="#00BFFF" id="img-02234e32-45">
              <g class="marker" id="img-02234e32-46">
                <g transform="translate(71.2,44.23)" id="img-02234e32-47">
                  <circle cx="0" cy="0" r="0.9" class="primitive"/>
                </g>
              </g>
            </g>
            <g class="color_RGBA{Float32}(0.0f0,0.74736935f0,1.0f0,1.0f0)" fill-opacity="1" stroke="#FFFFFF" fill="#00BFFF" id="img-02234e32-48">
              <g class="marker" id="img-02234e32-49">
                <g transform="translate(102.1,35.96)" id="img-02234e32-50">
                  <circle cx="0" cy="0" r="0.9" class="primitive"/>
                </g>
              </g>
            </g>
            <g class="color_RGBA{Float32}(0.0f0,0.74736935f0,1.0f0,1.0f0)" fill-opacity="1" stroke="#FFFFFF" fill="#00BFFF" id="img-02234e32-51">
              <g class="marker" id="img-02234e32-52">
                <g transform="translate(96.48,35.96)" id="img-02234e32-53">
                  <circle cx="0" cy="0" r="0.9" class="primitive"/>
                </g>
              </g>
            </g>
            <g class="color_RGBA{Float32}(0.0f0,0.74736935f0,1.0f0,1.0f0)" fill-opacity="1" stroke="#FFFFFF" fill="#00BFFF" id="img-02234e32-54">
              <g class="marker" id="img-02234e32-55">
                <g transform="translate(102.1,35.96)" id="img-02234e32-56">
                  <circle cx="0" cy="0" r="0.9" class="primitive"/>
                </g>
              </g>
            </g>
            <g class="color_RGBA{Float32}(0.0f0,0.74736935f0,1.0f0,1.0f0)" fill-opacity="1" stroke="#FFFFFF" fill="#00BFFF" id="img-02234e32-57">
              <g class="marker" id="img-02234e32-58">
                <g transform="translate(76.82,38.03)" id="img-02234e32-59">
                  <circle cx="0" cy="0" r="0.9" class="primitive"/>
                </g>
              </g>
            </g>
            <g class="color_RGBA{Float32}(0.0f0,0.74736935f0,1.0f0,1.0f0)" fill-opacity="1" stroke="#FFFFFF" fill="#00BFFF" id="img-02234e32-60">
              <g class="marker" id="img-02234e32-61">
                <g transform="translate(88.05,35.96)" id="img-02234e32-62">
                  <circle cx="0" cy="0" r="0.9" class="primitive"/>
                </g>
              </g>
            </g>
            <g class="color_RGBA{Float32}(0.0f0,0.74736935f0,1.0f0,1.0f0)" fill-opacity="1" stroke="#FFFFFF" fill="#00BFFF" id="img-02234e32-63">
              <g class="marker" id="img-02234e32-64">
                <g transform="translate(85.24,29.75)" id="img-02234e32-65">
                  <circle cx="0" cy="0" r="0.9" class="primitive"/>
                </g>
              </g>
            </g>
            <g class="color_RGBA{Float32}(0.0f0,0.74736935f0,1.0f0,1.0f0)" fill-opacity="1" stroke="#FFFFFF" fill="#00BFFF" id="img-02234e32-66">
              <g class="marker" id="img-02234e32-67">
                <g transform="translate(124.57,38.03)" id="img-02234e32-68">
                  <circle cx="0" cy="0" r="0.9" class="primitive"/>
                </g>
              </g>
            </g>
            <g class="color_RGBA{Float32}(0.0f0,0.74736935f0,1.0f0,1.0f0)" fill-opacity="1" stroke="#FFFFFF" fill="#00BFFF" id="img-02234e32-69">
              <g class="marker" id="img-02234e32-70">
                <g transform="translate(79.63,46.3)" id="img-02234e32-71">
                  <circle cx="0" cy="0" r="0.9" class="primitive"/>
                </g>
              </g>
            </g>
            <g class="color_RGBA{Float32}(0.0f0,0.74736935f0,1.0f0,1.0f0)" fill-opacity="1" stroke="#FFFFFF" fill="#00BFFF" id="img-02234e32-72">
              <g class="marker" id="img-02234e32-73">
                <g transform="translate(85.24,42.17)" id="img-02234e32-74">
                  <circle cx="0" cy="0" r="0.9" class="primitive"/>
                </g>
              </g>
            </g>
            <g class="color_RGBA{Float32}(0.0f0,0.74736935f0,1.0f0,1.0f0)" fill-opacity="1" stroke="#FFFFFF" fill="#00BFFF" id="img-02234e32-75">
              <g class="marker" id="img-02234e32-76">
                <g transform="translate(88.05,42.17)" id="img-02234e32-77">
                  <circle cx="0" cy="0" r="0.9" class="primitive"/>
                </g>
              </g>
            </g>
            <g class="color_RGBA{Float32}(0.0f0,0.74736935f0,1.0f0,1.0f0)" fill-opacity="1" stroke="#FFFFFF" fill="#00BFFF" id="img-02234e32-78">
              <g class="marker" id="img-02234e32-79">
                <g transform="translate(130.19,21.48)" id="img-02234e32-80">
                  <circle cx="0" cy="0" r="0.9" class="primitive"/>
                </g>
              </g>
            </g>
            <g class="color_RGBA{Float32}(0.0f0,0.74736935f0,1.0f0,1.0f0)" fill-opacity="1" stroke="#FFFFFF" fill="#00BFFF" id="img-02234e32-81">
              <g class="marker" id="img-02234e32-82">
                <g transform="translate(116.14,42.17)" id="img-02234e32-83">
                  <circle cx="0" cy="0" r="0.9" class="primitive"/>
                </g>
              </g>
            </g>
            <g class="color_RGBA{Float32}(0.0f0,0.74736935f0,1.0f0,1.0f0)" fill-opacity="1" stroke="#FFFFFF" fill="#00BFFF" id="img-02234e32-84">
              <g class="marker" id="img-02234e32-85">
                <g transform="translate(110.53,38.03)" id="img-02234e32-86">
                  <circle cx="0" cy="0" r="0.9" class="primitive"/>
                </g>
              </g>
            </g>
            <g class="color_RGBA{Float32}(0.0f0,0.74736935f0,1.0f0,1.0f0)" fill-opacity="1" stroke="#FFFFFF" fill="#00BFFF" id="img-02234e32-87">
              <g class="marker" id="img-02234e32-88">
                <g transform="translate(88.05,42.17)" id="img-02234e32-89">
                  <circle cx="0" cy="0" r="0.9" class="primitive"/>
                </g>
              </g>
            </g>
            <g class="color_RGBA{Float32}(0.0f0,0.74736935f0,1.0f0,1.0f0)" fill-opacity="1" stroke="#FFFFFF" fill="#00BFFF" id="img-02234e32-90">
              <g class="marker" id="img-02234e32-91">
                <g transform="translate(79.63,38.03)" id="img-02234e32-92">
                  <circle cx="0" cy="0" r="0.9" class="primitive"/>
                </g>
              </g>
            </g>
            <g class="color_RGBA{Float32}(0.0f0,0.74736935f0,1.0f0,1.0f0)" fill-opacity="1" stroke="#FFFFFF" fill="#00BFFF" id="img-02234e32-93">
              <g class="marker" id="img-02234e32-94">
                <g transform="translate(82.43,42.17)" id="img-02234e32-95">
                  <circle cx="0" cy="0" r="0.9" class="primitive"/>
                </g>
              </g>
            </g>
            <g class="color_RGBA{Float32}(0.0f0,0.74736935f0,1.0f0,1.0f0)" fill-opacity="1" stroke="#FFFFFF" fill="#00BFFF" id="img-02234e32-96">
              <g class="marker" id="img-02234e32-97">
                <g transform="translate(110.53,33.89)" id="img-02234e32-98">
                  <circle cx="0" cy="0" r="0.9" class="primitive"/>
                </g>
              </g>
            </g>
            <g class="color_RGBA{Float32}(0.0f0,0.74736935f0,1.0f0,1.0f0)" fill-opacity="1" stroke="#FFFFFF" fill="#00BFFF" id="img-02234e32-99">
              <g class="marker" id="img-02234e32-100">
                <g transform="translate(96.48,31.82)" id="img-02234e32-101">
                  <circle cx="0" cy="0" r="0.9" class="primitive"/>
                </g>
              </g>
            </g>
            <g class="color_RGBA{Float32}(0.0f0,0.74736935f0,1.0f0,1.0f0)" fill-opacity="1" stroke="#FFFFFF" fill="#00BFFF" id="img-02234e32-102">
              <g class="marker" id="img-02234e32-103">
                <g transform="translate(85.24,44.23)" id="img-02234e32-104">
                  <circle cx="0" cy="0" r="0.9" class="primitive"/>
                </g>
              </g>
            </g>
            <g class="color_RGBA{Float32}(0.0f0,0.74736935f0,1.0f0,1.0f0)" fill-opacity="1" stroke="#FFFFFF" fill="#00BFFF" id="img-02234e32-105">
              <g class="marker" id="img-02234e32-106">
                <g transform="translate(124.57,42.17)" id="img-02234e32-107">
                  <circle cx="0" cy="0" r="0.9" class="primitive"/>
                </g>
              </g>
            </g>
            <g class="color_RGBA{Float32}(0.0f0,0.74736935f0,1.0f0,1.0f0)" fill-opacity="1" stroke="#FFFFFF" fill="#00BFFF" id="img-02234e32-108">
              <g class="marker" id="img-02234e32-109">
                <g transform="translate(65.58,42.17)" id="img-02234e32-110">
                  <circle cx="0" cy="0" r="0.9" class="primitive"/>
                </g>
              </g>
            </g>
            <g class="color_RGBA{Float32}(0.0f0,0.74736935f0,1.0f0,1.0f0)" fill-opacity="1" stroke="#FFFFFF" fill="#00BFFF" id="img-02234e32-111">
              <g class="marker" id="img-02234e32-112">
                <g transform="translate(102.1,33.89)" id="img-02234e32-113">
                  <circle cx="0" cy="0" r="0.9" class="primitive"/>
                </g>
              </g>
            </g>
            <g class="color_RGBA{Float32}(0.0f0,0.74736935f0,1.0f0,1.0f0)" fill-opacity="1" stroke="#FFFFFF" fill="#00BFFF" id="img-02234e32-114">
              <g class="marker" id="img-02234e32-115">
                <g transform="translate(76.82,54.58)" id="img-02234e32-116">
                  <circle cx="0" cy="0" r="0.9" class="primitive"/>
                </g>
              </g>
            </g>
            <g class="color_RGBA{Float32}(0.0f0,0.74736935f0,1.0f0,1.0f0)" fill-opacity="1" stroke="#FFFFFF" fill="#00BFFF" id="img-02234e32-117">
              <g class="marker" id="img-02234e32-118">
                <g transform="translate(124.57,46.3)" id="img-02234e32-119">
                  <circle cx="0" cy="0" r="0.9" class="primitive"/>
                </g>
              </g>
            </g>
            <g class="color_RGBA{Float32}(0.0f0,0.74736935f0,1.0f0,1.0f0)" fill-opacity="1" stroke="#FFFFFF" fill="#00BFFF" id="img-02234e32-120">
              <g class="marker" id="img-02234e32-121">
                <g transform="translate(124.57,21.48)" id="img-02234e32-122">
                  <circle cx="0" cy="0" r="0.9" class="primitive"/>
                </g>
              </g>
            </g>
            <g class="color_RGBA{Float32}(0.0f0,0.74736935f0,1.0f0,1.0f0)" fill-opacity="1" stroke="#FFFFFF" fill="#00BFFF" id="img-02234e32-123">
              <g class="marker" id="img-02234e32-124">
                <g transform="translate(90.86,38.03)" id="img-02234e32-125">
                  <circle cx="0" cy="0" r="0.9" class="primitive"/>
                </g>
              </g>
            </g>
            <g class="color_RGBA{Float32}(0.0f0,0.74736935f0,1.0f0,1.0f0)" fill-opacity="1" stroke="#FFFFFF" fill="#00BFFF" id="img-02234e32-126">
              <g class="marker" id="img-02234e32-127">
                <g transform="translate(88.05,33.89)" id="img-02234e32-128">
                  <circle cx="0" cy="0" r="0.9" class="primitive"/>
                </g>
              </g>
            </g>
            <g class="color_RGBA{Float32}(0.0f0,0.74736935f0,1.0f0,1.0f0)" fill-opacity="1" stroke="#FFFFFF" fill="#00BFFF" id="img-02234e32-129">
              <g class="marker" id="img-02234e32-130">
                <g transform="translate(71.2,42.17)" id="img-02234e32-131">
                  <circle cx="0" cy="0" r="0.9" class="primitive"/>
                </g>
              </g>
            </g>
            <g class="color_RGBA{Float32}(0.0f0,0.74736935f0,1.0f0,1.0f0)" fill-opacity="1" stroke="#FFFFFF" fill="#00BFFF" id="img-02234e32-132">
              <g class="marker" id="img-02234e32-133">
                <g transform="translate(68.39,48.37)" id="img-02234e32-134">
                  <circle cx="0" cy="0" r="0.9" class="primitive"/>
                </g>
              </g>
            </g>
            <g class="color_RGBA{Float32}(0.0f0,0.74736935f0,1.0f0,1.0f0)" fill-opacity="1" stroke="#FFFFFF" fill="#00BFFF" id="img-02234e32-135">
              <g class="marker" id="img-02234e32-136">
                <g transform="translate(99.29,38.03)" id="img-02234e32-137">
                  <circle cx="0" cy="0" r="0.9" class="primitive"/>
                </g>
              </g>
            </g>
            <g class="color_RGBA{Float32}(0.0f0,0.74736935f0,1.0f0,1.0f0)" fill-opacity="1" stroke="#FFFFFF" fill="#00BFFF" id="img-02234e32-138">
              <g class="marker" id="img-02234e32-139">
                <g transform="translate(88.05,44.23)" id="img-02234e32-140">
                  <circle cx="0" cy="0" r="0.9" class="primitive"/>
                </g>
              </g>
            </g>
            <g class="color_RGBA{Float32}(0.0f0,0.74736935f0,1.0f0,1.0f0)" fill-opacity="1" stroke="#FFFFFF" fill="#00BFFF" id="img-02234e32-141">
              <g class="marker" id="img-02234e32-142">
                <g transform="translate(90.86,33.89)" id="img-02234e32-143">
                  <circle cx="0" cy="0" r="0.9" class="primitive"/>
                </g>
              </g>
            </g>
            <g class="color_RGBA{Float32}(0.0f0,0.74736935f0,1.0f0,1.0f0)" fill-opacity="1" stroke="#FFFFFF" fill="#00BFFF" id="img-02234e32-144">
              <g class="marker" id="img-02234e32-145">
                <g transform="translate(110.53,25.62)" id="img-02234e32-146">
                  <circle cx="0" cy="0" r="0.9" class="primitive"/>
                </g>
              </g>
            </g>
            <g class="color_RGBA{Float32}(0.0f0,0.74736935f0,1.0f0,1.0f0)" fill-opacity="1" stroke="#FFFFFF" fill="#00BFFF" id="img-02234e32-147">
              <g class="marker" id="img-02234e32-148">
                <g transform="translate(96.48,48.37)" id="img-02234e32-149">
                  <circle cx="0" cy="0" r="0.9" class="primitive"/>
                </g>
              </g>
            </g>
            <g class="color_RGBA{Float32}(0.0f0,0.74736935f0,1.0f0,1.0f0)" fill-opacity="1" stroke="#FFFFFF" fill="#00BFFF" id="img-02234e32-150">
              <g class="marker" id="img-02234e32-151">
                <g transform="translate(113.34,40.1)" id="img-02234e32-152">
                  <circle cx="0" cy="0" r="0.9" class="primitive"/>
                </g>
              </g>
            </g>
            <g class="color_RGBA{Float32}(0.0f0,0.74736935f0,1.0f0,1.0f0)" fill-opacity="1" stroke="#FFFFFF" fill="#00BFFF" id="img-02234e32-153">
              <g class="marker" id="img-02234e32-154">
                <g transform="translate(45.91,48.37)" id="img-02234e32-155">
                  <circle cx="0" cy="0" r="0.9" class="primitive"/>
                </g>
              </g>
            </g>
            <g class="color_RGBA{Float32}(0.0f0,0.74736935f0,1.0f0,1.0f0)" fill-opacity="1" stroke="#FFFFFF" fill="#00BFFF" id="img-02234e32-156">
              <g class="marker" id="img-02234e32-157">
                <g transform="translate(121.76,38.03)" id="img-02234e32-158">
                  <circle cx="0" cy="0" r="0.9" class="primitive"/>
                </g>
              </g>
            </g>
            <g class="color_RGBA{Float32}(0.0f0,0.74736935f0,1.0f0,1.0f0)" fill-opacity="1" stroke="#FFFFFF" fill="#00BFFF" id="img-02234e32-159">
              <g class="marker" id="img-02234e32-160">
                <g transform="translate(90.86,38.03)" id="img-02234e32-161">
                  <circle cx="0" cy="0" r="0.9" class="primitive"/>
                </g>
              </g>
            </g>
            <g class="color_RGBA{Float32}(0.0f0,0.74736935f0,1.0f0,1.0f0)" fill-opacity="1" stroke="#FFFFFF" fill="#00BFFF" id="img-02234e32-162">
              <g class="marker" id="img-02234e32-163">
                <g transform="translate(85.24,40.1)" id="img-02234e32-164">
                  <circle cx="0" cy="0" r="0.9" class="primitive"/>
                </g>
              </g>
            </g>
            <g class="color_RGBA{Float32}(0.0f0,0.74736935f0,1.0f0,1.0f0)" fill-opacity="1" stroke="#FFFFFF" fill="#00BFFF" id="img-02234e32-165">
              <g class="marker" id="img-02234e32-166">
                <g transform="translate(107.72,38.03)" id="img-02234e32-167">
                  <circle cx="0" cy="0" r="0.9" class="primitive"/>
                </g>
              </g>
            </g>
            <g class="color_RGBA{Float32}(0.0f0,0.74736935f0,1.0f0,1.0f0)" fill-opacity="1" stroke="#FFFFFF" fill="#00BFFF" id="img-02234e32-168">
              <g class="marker" id="img-02234e32-169">
                <g transform="translate(71.2,44.23)" id="img-02234e32-170">
                  <circle cx="0" cy="0" r="0.9" class="primitive"/>
                </g>
              </g>
            </g>
            <g class="color_RGBA{Float32}(0.0f0,0.74736935f0,1.0f0,1.0f0)" fill-opacity="1" stroke="#FFFFFF" fill="#00BFFF" id="img-02234e32-171">
              <g class="marker" id="img-02234e32-172">
                <g transform="translate(85.24,31.82)" id="img-02234e32-173">
                  <circle cx="0" cy="0" r="0.9" class="primitive"/>
                </g>
              </g>
            </g>
            <g class="color_RGBA{Float32}(0.0f0,0.74736935f0,1.0f0,1.0f0)" fill-opacity="1" stroke="#FFFFFF" fill="#00BFFF" id="img-02234e32-174">
              <g class="marker" id="img-02234e32-175">
                <g transform="translate(68.39,42.17)" id="img-02234e32-176">
                  <circle cx="0" cy="0" r="0.9" class="primitive"/>
                </g>
              </g>
            </g>
            <g class="color_RGBA{Float32}(0.0f0,0.74736935f0,1.0f0,1.0f0)" fill-opacity="1" stroke="#FFFFFF" fill="#00BFFF" id="img-02234e32-177">
              <g class="marker" id="img-02234e32-178">
                <g transform="translate(51.53,48.37)" id="img-02234e32-179">
                  <circle cx="0" cy="0" r="0.9" class="primitive"/>
                </g>
              </g>
            </g>
            <g class="color_RGBA{Float32}(0.0f0,0.74736935f0,1.0f0,1.0f0)" fill-opacity="1" stroke="#FFFFFF" fill="#00BFFF" id="img-02234e32-180">
              <g class="marker" id="img-02234e32-181">
                <g transform="translate(82.43,40.1)" id="img-02234e32-182">
                  <circle cx="0" cy="0" r="0.9" class="primitive"/>
                </g>
              </g>
            </g>
            <g class="color_RGBA{Float32}(0.0f0,0.74736935f0,1.0f0,1.0f0)" fill-opacity="1" stroke="#FFFFFF" fill="#00BFFF" id="img-02234e32-183">
              <g class="marker" id="img-02234e32-184">
                <g transform="translate(68.39,40.1)" id="img-02234e32-185">
                  <circle cx="0" cy="0" r="0.9" class="primitive"/>
                </g>
              </g>
            </g>
            <g class="color_RGBA{Float32}(0.0f0,0.74736935f0,1.0f0,1.0f0)" fill-opacity="1" stroke="#FFFFFF" fill="#00BFFF" id="img-02234e32-186">
              <g class="marker" id="img-02234e32-187">
                <g transform="translate(68.39,38.03)" id="img-02234e32-188">
                  <circle cx="0" cy="0" r="0.9" class="primitive"/>
                </g>
              </g>
            </g>
            <g class="color_RGBA{Float32}(0.0f0,0.74736935f0,1.0f0,1.0f0)" fill-opacity="1" stroke="#FFFFFF" fill="#00BFFF" id="img-02234e32-189">
              <g class="marker" id="img-02234e32-190">
                <g transform="translate(65.58,44.23)" id="img-02234e32-191">
                  <circle cx="0" cy="0" r="0.9" class="primitive"/>
                </g>
              </g>
            </g>
            <g class="color_RGBA{Float32}(0.0f0,0.74736935f0,1.0f0,1.0f0)" fill-opacity="1" stroke="#FFFFFF" fill="#00BFFF" id="img-02234e32-192">
              <g class="marker" id="img-02234e32-193">
                <g transform="translate(48.72,52.51)" id="img-02234e32-194">
                  <circle cx="0" cy="0" r="0.9" class="primitive"/>
                </g>
              </g>
            </g>
            <g class="color_RGBA{Float32}(0.0f0,0.74736935f0,1.0f0,1.0f0)" fill-opacity="1" stroke="#FFFFFF" fill="#00BFFF" id="img-02234e32-195">
              <g class="marker" id="img-02234e32-196">
                <g transform="translate(71.2,46.3)" id="img-02234e32-197">
                  <circle cx="0" cy="0" r="0.9" class="primitive"/>
                </g>
              </g>
            </g>
            <g class="color_RGBA{Float32}(0.0f0,0.74736935f0,1.0f0,1.0f0)" fill-opacity="1" stroke="#FFFFFF" fill="#00BFFF" id="img-02234e32-198">
              <g class="marker" id="img-02234e32-199">
                <g transform="translate(79.63,38.03)" id="img-02234e32-200">
                  <circle cx="0" cy="0" r="0.9" class="primitive"/>
                </g>
              </g>
            </g>
            <g class="color_RGBA{Float32}(0.0f0,0.74736935f0,1.0f0,1.0f0)" fill-opacity="1" stroke="#FFFFFF" fill="#00BFFF" id="img-02234e32-201">
              <g class="marker" id="img-02234e32-202">
                <g transform="translate(62.77,46.3)" id="img-02234e32-203">
                  <circle cx="0" cy="0" r="0.9" class="primitive"/>
                </g>
              </g>
            </g>
            <g class="color_RGBA{Float32}(0.0f0,0.74736935f0,1.0f0,1.0f0)" fill-opacity="1" stroke="#FFFFFF" fill="#00BFFF" id="img-02234e32-204">
              <g class="marker" id="img-02234e32-205">
                <g transform="translate(62.77,48.37)" id="img-02234e32-206">
                  <circle cx="0" cy="0" r="0.9" class="primitive"/>
                </g>
              </g>
            </g>
            <g class="color_RGBA{Float32}(0.0f0,0.74736935f0,1.0f0,1.0f0)" fill-opacity="1" stroke="#FFFFFF" fill="#00BFFF" id="img-02234e32-207">
              <g class="marker" id="img-02234e32-208">
                <g transform="translate(65.58,38.03)" id="img-02234e32-209">
                  <circle cx="0" cy="0" r="0.9" class="primitive"/>
                </g>
              </g>
            </g>
            <g class="color_RGBA{Float32}(0.0f0,0.74736935f0,1.0f0,1.0f0)" fill-opacity="1" stroke="#FFFFFF" fill="#00BFFF" id="img-02234e32-210">
              <g class="marker" id="img-02234e32-211">
                <g transform="translate(85.24,52.51)" id="img-02234e32-212">
                  <circle cx="0" cy="0" r="0.9" class="primitive"/>
                </g>
              </g>
            </g>
            <g class="color_RGBA{Float32}(0.0f0,0.74736935f0,1.0f0,1.0f0)" fill-opacity="1" stroke="#FFFFFF" fill="#00BFFF" id="img-02234e32-213">
              <g class="marker" id="img-02234e32-214">
                <g transform="translate(96.48,35.96)" id="img-02234e32-215">
                  <circle cx="0" cy="0" r="0.9" class="primitive"/>
                </g>
              </g>
            </g>
            <g class="color_RGBA{Float32}(0.0f0,0.74736935f0,1.0f0,1.0f0)" fill-opacity="1" stroke="#FFFFFF" fill="#00BFFF" id="img-02234e32-216">
              <g class="marker" id="img-02234e32-217">
                <g transform="translate(76.82,29.75)" id="img-02234e32-218">
                  <circle cx="0" cy="0" r="0.9" class="primitive"/>
                </g>
              </g>
            </g>
            <g class="color_RGBA{Float32}(0.0f0,0.74736935f0,1.0f0,1.0f0)" fill-opacity="1" stroke="#FFFFFF" fill="#00BFFF" id="img-02234e32-219">
              <g class="marker" id="img-02234e32-220">
                <g transform="translate(59.96,38.03)" id="img-02234e32-221">
                  <circle cx="0" cy="0" r="0.9" class="primitive"/>
                </g>
              </g>
            </g>
            <g class="color_RGBA{Float32}(0.0f0,0.74736935f0,1.0f0,1.0f0)" fill-opacity="1" stroke="#FFFFFF" fill="#00BFFF" id="img-02234e32-222">
              <g class="marker" id="img-02234e32-223">
                <g transform="translate(76.82,44.23)" id="img-02234e32-224">
                  <circle cx="0" cy="0" r="0.9" class="primitive"/>
                </g>
              </g>
            </g>
            <g class="color_RGBA{Float32}(0.0f0,0.74736935f0,1.0f0,1.0f0)" fill-opacity="1" stroke="#FFFFFF" fill="#00BFFF" id="img-02234e32-225">
              <g class="marker" id="img-02234e32-226">
                <g transform="translate(71.2,44.23)" id="img-02234e32-227">
                  <circle cx="0" cy="0" r="0.9" class="primitive"/>
                </g>
              </g>
            </g>
            <g class="color_RGBA{Float32}(0.0f0,0.74736935f0,1.0f0,1.0f0)" fill-opacity="1" stroke="#FFFFFF" fill="#00BFFF" id="img-02234e32-228">
              <g class="marker" id="img-02234e32-229">
                <g transform="translate(62.77,50.44)" id="img-02234e32-230">
                  <circle cx="0" cy="0" r="0.9" class="primitive"/>
                </g>
              </g>
            </g>
            <g class="color_RGBA{Float32}(0.0f0,0.74736935f0,1.0f0,1.0f0)" fill-opacity="1" stroke="#FFFFFF" fill="#00BFFF" id="img-02234e32-231">
              <g class="marker" id="img-02234e32-232">
                <g transform="translate(62.77,50.44)" id="img-02234e32-233">
                  <circle cx="0" cy="0" r="0.9" class="primitive"/>
                </g>
              </g>
            </g>
            <g class="color_RGBA{Float32}(0.0f0,0.74736935f0,1.0f0,1.0f0)" fill-opacity="1" stroke="#FFFFFF" fill="#00BFFF" id="img-02234e32-234">
              <g class="marker" id="img-02234e32-235">
                <g transform="translate(68.39,46.3)" id="img-02234e32-236">
                  <circle cx="0" cy="0" r="0.9" class="primitive"/>
                </g>
              </g>
            </g>
            <g class="color_RGBA{Float32}(0.0f0,0.74736935f0,1.0f0,1.0f0)" fill-opacity="1" stroke="#FFFFFF" fill="#00BFFF" id="img-02234e32-237">
              <g class="marker" id="img-02234e32-238">
                <g transform="translate(76.82,40.1)" id="img-02234e32-239">
                  <circle cx="0" cy="0" r="0.9" class="primitive"/>
                </g>
              </g>
            </g>
            <g class="color_RGBA{Float32}(0.0f0,0.74736935f0,1.0f0,1.0f0)" fill-opacity="1" stroke="#FFFFFF" fill="#00BFFF" id="img-02234e32-240">
              <g class="marker" id="img-02234e32-241">
                <g transform="translate(96.48,38.03)" id="img-02234e32-242">
                  <circle cx="0" cy="0" r="0.9" class="primitive"/>
                </g>
              </g>
            </g>
            <g class="color_RGBA{Float32}(0.0f0,0.74736935f0,1.0f0,1.0f0)" fill-opacity="1" stroke="#FFFFFF" fill="#00BFFF" id="img-02234e32-243">
              <g class="marker" id="img-02234e32-244">
                <g transform="translate(99.29,42.17)" id="img-02234e32-245">
                  <circle cx="0" cy="0" r="0.9" class="primitive"/>
                </g>
              </g>
            </g>
            <g class="color_RGBA{Float32}(0.0f0,0.74736935f0,1.0f0,1.0f0)" fill-opacity="1" stroke="#FFFFFF" fill="#00BFFF" id="img-02234e32-246">
              <g class="marker" id="img-02234e32-247">
                <g transform="translate(93.67,38.03)" id="img-02234e32-248">
                  <circle cx="0" cy="0" r="0.9" class="primitive"/>
                </g>
              </g>
            </g>
            <g class="color_RGBA{Float32}(0.0f0,0.74736935f0,1.0f0,1.0f0)" fill-opacity="1" stroke="#FFFFFF" fill="#00BFFF" id="img-02234e32-249">
              <g class="marker" id="img-02234e32-250">
                <g transform="translate(88.05,40.1)" id="img-02234e32-251">
                  <circle cx="0" cy="0" r="0.9" class="primitive"/>
                </g>
              </g>
            </g>
            <g class="color_RGBA{Float32}(0.0f0,0.74736935f0,1.0f0,1.0f0)" fill-opacity="1" stroke="#FFFFFF" fill="#00BFFF" id="img-02234e32-252">
              <g class="marker" id="img-02234e32-253">
                <g transform="translate(79.63,42.17)" id="img-02234e32-254">
                  <circle cx="0" cy="0" r="0.9" class="primitive"/>
                </g>
              </g>
            </g>
            <g class="color_RGBA{Float32}(0.0f0,0.74736935f0,1.0f0,1.0f0)" fill-opacity="1" stroke="#FFFFFF" fill="#00BFFF" id="img-02234e32-255">
              <g class="marker" id="img-02234e32-256">
                <g transform="translate(85.24,48.37)" id="img-02234e32-257">
                  <circle cx="0" cy="0" r="0.9" class="primitive"/>
                </g>
              </g>
            </g>
            <g class="color_RGBA{Float32}(0.0f0,0.74736935f0,1.0f0,1.0f0)" fill-opacity="1" stroke="#FFFFFF" fill="#00BFFF" id="img-02234e32-258">
              <g class="marker" id="img-02234e32-259">
                <g transform="translate(79.63,42.17)" id="img-02234e32-260">
                  <circle cx="0" cy="0" r="0.9" class="primitive"/>
                </g>
              </g>
            </g>
            <g class="color_RGBA{Float32}(0.0f0,0.74736935f0,1.0f0,1.0f0)" fill-opacity="1" stroke="#FFFFFF" fill="#00BFFF" id="img-02234e32-261">
              <g class="marker" id="img-02234e32-262">
                <g transform="translate(74.01,33.89)" id="img-02234e32-263">
                  <circle cx="0" cy="0" r="0.9" class="primitive"/>
                </g>
              </g>
            </g>
            <g class="color_RGBA{Float32}(0.0f0,0.74736935f0,1.0f0,1.0f0)" fill-opacity="1" stroke="#FFFFFF" fill="#00BFFF" id="img-02234e32-264">
              <g class="marker" id="img-02234e32-265">
                <g transform="translate(65.58,48.37)" id="img-02234e32-266">
                  <circle cx="0" cy="0" r="0.9" class="primitive"/>
                </g>
              </g>
            </g>
            <g class="color_RGBA{Float32}(0.0f0,0.74736935f0,1.0f0,1.0f0)" fill-opacity="1" stroke="#FFFFFF" fill="#00BFFF" id="img-02234e32-267">
              <g class="marker" id="img-02234e32-268">
                <g transform="translate(82.43,54.58)" id="img-02234e32-269">
                  <circle cx="0" cy="0" r="0.9" class="primitive"/>
                </g>
              </g>
            </g>
            <g class="color_RGBA{Float32}(0.0f0,0.74736935f0,1.0f0,1.0f0)" fill-opacity="1" stroke="#FFFFFF" fill="#00BFFF" id="img-02234e32-270">
              <g class="marker" id="img-02234e32-271">
                <g transform="translate(71.2,44.23)" id="img-02234e32-272">
                  <circle cx="0" cy="0" r="0.9" class="primitive"/>
                </g>
              </g>
            </g>
            <g class="color_RGBA{Float32}(0.0f0,0.74736935f0,1.0f0,1.0f0)" fill-opacity="1" stroke="#FFFFFF" fill="#00BFFF" id="img-02234e32-273">
              <g class="marker" id="img-02234e32-274">
                <g transform="translate(65.58,38.03)" id="img-02234e32-275">
                  <circle cx="0" cy="0" r="0.9" class="primitive"/>
                </g>
              </g>
            </g>
            <g class="color_RGBA{Float32}(0.0f0,0.74736935f0,1.0f0,1.0f0)" fill-opacity="1" stroke="#FFFFFF" fill="#00BFFF" id="img-02234e32-276">
              <g class="marker" id="img-02234e32-277">
                <g transform="translate(96.48,35.96)" id="img-02234e32-278">
                  <circle cx="0" cy="0" r="0.9" class="primitive"/>
                </g>
              </g>
            </g>
            <g class="color_RGBA{Float32}(0.0f0,0.74736935f0,1.0f0,1.0f0)" fill-opacity="1" stroke="#FFFFFF" fill="#00BFFF" id="img-02234e32-279">
              <g class="marker" id="img-02234e32-280">
                <g transform="translate(65.58,40.1)" id="img-02234e32-281">
                  <circle cx="0" cy="0" r="0.9" class="primitive"/>
                </g>
              </g>
            </g>
            <g class="color_RGBA{Float32}(0.0f0,0.74736935f0,1.0f0,1.0f0)" fill-opacity="1" stroke="#FFFFFF" fill="#00BFFF" id="img-02234e32-282">
              <g class="marker" id="img-02234e32-283">
                <g transform="translate(79.63,40.1)" id="img-02234e32-284">
                  <circle cx="0" cy="0" r="0.9" class="primitive"/>
                </g>
              </g>
            </g>
            <g class="color_RGBA{Float32}(0.0f0,0.74736935f0,1.0f0,1.0f0)" fill-opacity="1" stroke="#FFFFFF" fill="#00BFFF" id="img-02234e32-285">
              <g class="marker" id="img-02234e32-286">
                <g transform="translate(76.82,54.58)" id="img-02234e32-287">
                  <circle cx="0" cy="0" r="0.9" class="primitive"/>
                </g>
              </g>
            </g>
            <g class="color_RGBA{Float32}(0.0f0,0.74736935f0,1.0f0,1.0f0)" fill-opacity="1" stroke="#FFFFFF" fill="#00BFFF" id="img-02234e32-288">
              <g class="marker" id="img-02234e32-289">
                <g transform="translate(74.01,38.03)" id="img-02234e32-290">
                  <circle cx="0" cy="0" r="0.9" class="primitive"/>
                </g>
              </g>
            </g>
            <g class="color_RGBA{Float32}(0.0f0,0.74736935f0,1.0f0,1.0f0)" fill-opacity="1" stroke="#FFFFFF" fill="#00BFFF" id="img-02234e32-291">
              <g class="marker" id="img-02234e32-292">
                <g transform="translate(48.72,58.72)" id="img-02234e32-293">
                  <circle cx="0" cy="0" r="0.9" class="primitive"/>
                </g>
              </g>
            </g>
            <g class="color_RGBA{Float32}(0.0f0,0.74736935f0,1.0f0,1.0f0)" fill-opacity="1" stroke="#FFFFFF" fill="#00BFFF" id="img-02234e32-294">
              <g class="marker" id="img-02234e32-295">
                <g transform="translate(54.34,44.23)" id="img-02234e32-296">
                  <circle cx="0" cy="0" r="0.9" class="primitive"/>
                </g>
              </g>
            </g>
            <g class="color_RGBA{Float32}(0.0f0,0.74736935f0,1.0f0,1.0f0)" fill-opacity="1" stroke="#FFFFFF" fill="#00BFFF" id="img-02234e32-297">
              <g class="marker" id="img-02234e32-298">
                <g transform="translate(93.67,40.1)" id="img-02234e32-299">
                  <circle cx="0" cy="0" r="0.9" class="primitive"/>
                </g>
              </g>
            </g>
            <g class="color_RGBA{Float32}(0.0f0,0.74736935f0,1.0f0,1.0f0)" fill-opacity="1" stroke="#FFFFFF" fill="#00BFFF" id="img-02234e32-300">
              <g class="marker" id="img-02234e32-301">
                <g transform="translate(45.91,50.44)" id="img-02234e32-302">
                  <circle cx="0" cy="0" r="0.9" class="primitive"/>
                </g>
              </g>
            </g>
            <g class="color_RGBA{Float32}(0.0f0,0.74736935f0,1.0f0,1.0f0)" fill-opacity="1" stroke="#FFFFFF" fill="#00BFFF" id="img-02234e32-303">
              <g class="marker" id="img-02234e32-304">
                <g transform="translate(85.24,31.82)" id="img-02234e32-305">
                  <circle cx="0" cy="0" r="0.9" class="primitive"/>
                </g>
              </g>
            </g>
            <g class="color_RGBA{Float32}(0.0f0,0.74736935f0,1.0f0,1.0f0)" fill-opacity="1" stroke="#FFFFFF" fill="#00BFFF" id="img-02234e32-306">
              <g class="marker" id="img-02234e32-307">
                <g transform="translate(68.39,42.17)" id="img-02234e32-308">
                  <circle cx="0" cy="0" r="0.9" class="primitive"/>
                </g>
              </g>
            </g>
            <g class="color_RGBA{Float32}(0.0f0,0.74736935f0,1.0f0,1.0f0)" fill-opacity="1" stroke="#FFFFFF" fill="#00BFFF" id="img-02234e32-309">
              <g class="marker" id="img-02234e32-310">
                <g transform="translate(90.86,42.17)" id="img-02234e32-311">
                  <circle cx="0" cy="0" r="0.9" class="primitive"/>
                </g>
              </g>
            </g>
            <g class="color_RGBA{Float32}(0.0f0,0.74736935f0,1.0f0,1.0f0)" fill-opacity="1" stroke="#FFFFFF" fill="#00BFFF" id="img-02234e32-312">
              <g class="marker" id="img-02234e32-313">
                <g transform="translate(62.77,52.51)" id="img-02234e32-314">
                  <circle cx="0" cy="0" r="0.9" class="primitive"/>
                </g>
              </g>
            </g>
            <g class="color_RGBA{Float32}(0.0f0,0.74736935f0,1.0f0,1.0f0)" fill-opacity="1" stroke="#FFFFFF" fill="#00BFFF" id="img-02234e32-315">
              <g class="marker" id="img-02234e32-316">
                <g transform="translate(102.1,35.96)" id="img-02234e32-317">
                  <circle cx="0" cy="0" r="0.9" class="primitive"/>
                </g>
              </g>
            </g>
            <g class="color_RGBA{Float32}(0.0f0,0.74736935f0,1.0f0,1.0f0)" fill-opacity="1" stroke="#FFFFFF" fill="#00BFFF" id="img-02234e32-318">
              <g class="marker" id="img-02234e32-319">
                <g transform="translate(88.05,33.89)" id="img-02234e32-320">
                  <circle cx="0" cy="0" r="0.9" class="primitive"/>
                </g>
              </g>
            </g>
            <g class="color_RGBA{Float32}(0.0f0,0.74736935f0,1.0f0,1.0f0)" fill-opacity="1" stroke="#FFFFFF" fill="#00BFFF" id="img-02234e32-321">
              <g class="marker" id="img-02234e32-322">
                <g transform="translate(104.91,33.89)" id="img-02234e32-323">
                  <circle cx="0" cy="0" r="0.9" class="primitive"/>
                </g>
              </g>
            </g>
            <g class="color_RGBA{Float32}(0.0f0,0.74736935f0,1.0f0,1.0f0)" fill-opacity="1" stroke="#FFFFFF" fill="#00BFFF" id="img-02234e32-324">
              <g class="marker" id="img-02234e32-325">
                <g transform="translate(48.72,31.82)" id="img-02234e32-326">
                  <circle cx="0" cy="0" r="0.9" class="primitive"/>
                </g>
              </g>
            </g>
            <g class="color_RGBA{Float32}(0.0f0,0.74736935f0,1.0f0,1.0f0)" fill-opacity="1" stroke="#FFFFFF" fill="#00BFFF" id="img-02234e32-327">
              <g class="marker" id="img-02234e32-328">
                <g transform="translate(57.15,23.55)" id="img-02234e32-329">
                  <circle cx="0" cy="0" r="0.9" class="primitive"/>
                </g>
              </g>
            </g>
            <g class="color_RGBA{Float32}(0.0f0,0.74736935f0,1.0f0,1.0f0)" fill-opacity="1" stroke="#FFFFFF" fill="#00BFFF" id="img-02234e32-330">
              <g class="marker" id="img-02234e32-331">
                <g transform="translate(37.49,33.89)" id="img-02234e32-332">
                  <circle cx="0" cy="0" r="0.9" class="primitive"/>
                </g>
              </g>
            </g>
            <g class="color_RGBA{Float32}(0.0f0,0.74736935f0,1.0f0,1.0f0)" fill-opacity="1" stroke="#FFFFFF" fill="#00BFFF" id="img-02234e32-333">
              <g class="marker" id="img-02234e32-334">
                <g transform="translate(51.53,21.48)" id="img-02234e32-335">
                  <circle cx="0" cy="0" r="0.9" class="primitive"/>
                </g>
              </g>
            </g>
            <g class="color_RGBA{Float32}(0.0f0,0.74736935f0,1.0f0,1.0f0)" fill-opacity="1" stroke="#FFFFFF" fill="#00BFFF" id="img-02234e32-336">
              <g class="marker" id="img-02234e32-337">
                <g transform="translate(43.11,38.03)" id="img-02234e32-338">
                  <circle cx="0" cy="0" r="0.9" class="primitive"/>
                </g>
              </g>
            </g>
            <g class="color_RGBA{Float32}(0.0f0,0.74736935f0,1.0f0,1.0f0)" fill-opacity="1" stroke="#FFFFFF" fill="#00BFFF" id="img-02234e32-339">
              <g class="marker" id="img-02234e32-340">
                <g transform="translate(51.53,21.48)" id="img-02234e32-341">
                  <circle cx="0" cy="0" r="0.9" class="primitive"/>
                </g>
              </g>
            </g>
            <g class="color_RGBA{Float32}(0.0f0,0.74736935f0,1.0f0,1.0f0)" fill-opacity="1" stroke="#FFFFFF" fill="#00BFFF" id="img-02234e32-342">
              <g class="marker" id="img-02234e32-343">
                <g transform="translate(48.72,27.69)" id="img-02234e32-344">
                  <circle cx="0" cy="0" r="0.9" class="primitive"/>
                </g>
              </g>
            </g>
            <g class="color_RGBA{Float32}(0.0f0,0.74736935f0,1.0f0,1.0f0)" fill-opacity="1" stroke="#FFFFFF" fill="#00BFFF" id="img-02234e32-345">
              <g class="marker" id="img-02234e32-346">
                <g transform="translate(31.87,33.89)" id="img-02234e32-347">
                  <circle cx="0" cy="0" r="0.9" class="primitive"/>
                </g>
              </g>
            </g>
            <g class="color_RGBA{Float32}(0.0f0,0.74736935f0,1.0f0,1.0f0)" fill-opacity="1" stroke="#FFFFFF" fill="#00BFFF" id="img-02234e32-348">
              <g class="marker" id="img-02234e32-349">
                <g transform="translate(34.68,52.51)" id="img-02234e32-350">
                  <circle cx="0" cy="0" r="0.9" class="primitive"/>
                </g>
              </g>
            </g>
            <g class="color_RGBA{Float32}(0.0f0,0.74736935f0,1.0f0,1.0f0)" fill-opacity="1" stroke="#FFFFFF" fill="#00BFFF" id="img-02234e32-351">
              <g class="marker" id="img-02234e32-352">
                <g transform="translate(48.72,27.69)" id="img-02234e32-353">
                  <circle cx="0" cy="0" r="0.9" class="primitive"/>
                </g>
              </g>
            </g>
            <g class="color_RGBA{Float32}(0.0f0,0.74736935f0,1.0f0,1.0f0)" fill-opacity="1" stroke="#FFFFFF" fill="#00BFFF" id="img-02234e32-354">
              <g class="marker" id="img-02234e32-355">
                <g transform="translate(51.53,29.75)" id="img-02234e32-356">
                  <circle cx="0" cy="0" r="0.9" class="primitive"/>
                </g>
              </g>
            </g>
            <g class="color_RGBA{Float32}(0.0f0,0.74736935f0,1.0f0,1.0f0)" fill-opacity="1" stroke="#FFFFFF" fill="#00BFFF" id="img-02234e32-357">
              <g class="marker" id="img-02234e32-358">
                <g transform="translate(31.87,38.03)" id="img-02234e32-359">
                  <circle cx="0" cy="0" r="0.9" class="primitive"/>
                </g>
              </g>
            </g>
            <g class="color_RGBA{Float32}(0.0f0,0.74736935f0,1.0f0,1.0f0)" fill-opacity="1" stroke="#FFFFFF" fill="#00BFFF" id="img-02234e32-360">
              <g class="marker" id="img-02234e32-361">
                <g transform="translate(45.91,25.62)" id="img-02234e32-362">
                  <circle cx="0" cy="0" r="0.9" class="primitive"/>
                </g>
              </g>
            </g>
            <g class="color_RGBA{Float32}(0.0f0,0.74736935f0,1.0f0,1.0f0)" fill-opacity="1" stroke="#FFFFFF" fill="#00BFFF" id="img-02234e32-363">
              <g class="marker" id="img-02234e32-364">
                <g transform="translate(62.77,27.69)" id="img-02234e32-365">
                  <circle cx="0" cy="0" r="0.9" class="primitive"/>
                </g>
              </g>
            </g>
            <g class="color_RGBA{Float32}(0.0f0,0.74736935f0,1.0f0,1.0f0)" fill-opacity="1" stroke="#FFFFFF" fill="#00BFFF" id="img-02234e32-366">
              <g class="marker" id="img-02234e32-367">
                <g transform="translate(48.72,33.89)" id="img-02234e32-368">
                  <circle cx="0" cy="0" r="0.9" class="primitive"/>
                </g>
              </g>
            </g>
            <g class="color_RGBA{Float32}(0.0f0,0.74736935f0,1.0f0,1.0f0)" fill-opacity="1" stroke="#FFFFFF" fill="#00BFFF" id="img-02234e32-369">
              <g class="marker" id="img-02234e32-370">
                <g transform="translate(45.91,35.96)" id="img-02234e32-371">
                  <circle cx="0" cy="0" r="0.9" class="primitive"/>
                </g>
              </g>
            </g>
            <g class="color_RGBA{Float32}(0.0f0,0.74736935f0,1.0f0,1.0f0)" fill-opacity="1" stroke="#FFFFFF" fill="#00BFFF" id="img-02234e32-372">
              <g class="marker" id="img-02234e32-373">
                <g transform="translate(62.77,13.21)" id="img-02234e32-374">
                  <circle cx="0" cy="0" r="0.9" class="primitive"/>
                </g>
              </g>
            </g>
            <g class="color_RGBA{Float32}(0.0f0,0.74736935f0,1.0f0,1.0f0)" fill-opacity="1" stroke="#FFFFFF" fill="#00BFFF" id="img-02234e32-375">
              <g class="marker" id="img-02234e32-376">
                <g transform="translate(54.34,15.27)" id="img-02234e32-377">
                  <circle cx="0" cy="0" r="0.9" class="primitive"/>
                </g>
              </g>
            </g>
            <g class="color_RGBA{Float32}(0.0f0,0.74736935f0,1.0f0,1.0f0)" fill-opacity="1" stroke="#FFFFFF" fill="#00BFFF" id="img-02234e32-378">
              <g class="marker" id="img-02234e32-379">
                <g transform="translate(59.96,29.75)" id="img-02234e32-380">
                  <circle cx="0" cy="0" r="0.9" class="primitive"/>
                </g>
              </g>
            </g>
            <g class="color_RGBA{Float32}(0.0f0,0.74736935f0,1.0f0,1.0f0)" fill-opacity="1" stroke="#FFFFFF" fill="#00BFFF" id="img-02234e32-381">
              <g class="marker" id="img-02234e32-382">
                <g transform="translate(43.11,35.96)" id="img-02234e32-383">
                  <circle cx="0" cy="0" r="0.9" class="primitive"/>
                </g>
              </g>
            </g>
            <g class="color_RGBA{Float32}(0.0f0,0.74736935f0,1.0f0,1.0f0)" fill-opacity="1" stroke="#FFFFFF" fill="#00BFFF" id="img-02234e32-384">
              <g class="marker" id="img-02234e32-385">
                <g transform="translate(40.3,33.89)" id="img-02234e32-386">
                  <circle cx="0" cy="0" r="0.9" class="primitive"/>
                </g>
              </g>
            </g>
            <g class="color_RGBA{Float32}(0.0f0,0.74736935f0,1.0f0,1.0f0)" fill-opacity="1" stroke="#FFFFFF" fill="#00BFFF" id="img-02234e32-387">
              <g class="marker" id="img-02234e32-388">
                <g transform="translate(54.34,29.75)" id="img-02234e32-389">
                  <circle cx="0" cy="0" r="0.9" class="primitive"/>
                </g>
              </g>
            </g>
            <g class="color_RGBA{Float32}(0.0f0,0.74736935f0,1.0f0,1.0f0)" fill-opacity="1" stroke="#FFFFFF" fill="#00BFFF" id="img-02234e32-390">
              <g class="marker" id="img-02234e32-391">
                <g transform="translate(54.34,27.69)" id="img-02234e32-392">
                  <circle cx="0" cy="0" r="0.9" class="primitive"/>
                </g>
              </g>
            </g>
            <g class="color_RGBA{Float32}(0.0f0,0.74736935f0,1.0f0,1.0f0)" fill-opacity="1" stroke="#FFFFFF" fill="#00BFFF" id="img-02234e32-393">
              <g class="marker" id="img-02234e32-394">
                <g transform="translate(48.72,29.75)" id="img-02234e32-395">
                  <circle cx="0" cy="0" r="0.9" class="primitive"/>
                </g>
              </g>
            </g>
            <g class="color_RGBA{Float32}(0.0f0,0.74736935f0,1.0f0,1.0f0)" fill-opacity="1" stroke="#FFFFFF" fill="#00BFFF" id="img-02234e32-396">
              <g class="marker" id="img-02234e32-397">
                <g transform="translate(48.72,38.03)" id="img-02234e32-398">
                  <circle cx="0" cy="0" r="0.9" class="primitive"/>
                </g>
              </g>
            </g>
            <g class="color_RGBA{Float32}(0.0f0,0.74736935f0,1.0f0,1.0f0)" fill-opacity="1" stroke="#FFFFFF" fill="#00BFFF" id="img-02234e32-399">
              <g class="marker" id="img-02234e32-400">
                <g transform="translate(43.11,29.75)" id="img-02234e32-401">
                  <circle cx="0" cy="0" r="0.9" class="primitive"/>
                </g>
              </g>
            </g>
            <g class="color_RGBA{Float32}(0.0f0,0.74736935f0,1.0f0,1.0f0)" fill-opacity="1" stroke="#FFFFFF" fill="#00BFFF" id="img-02234e32-402">
              <g class="marker" id="img-02234e32-403">
                <g transform="translate(51.53,31.82)" id="img-02234e32-404">
                  <circle cx="0" cy="0" r="0.9" class="primitive"/>
                </g>
              </g>
            </g>
            <g class="color_RGBA{Float32}(0.0f0,0.74736935f0,1.0f0,1.0f0)" fill-opacity="1" stroke="#FFFFFF" fill="#00BFFF" id="img-02234e32-405">
              <g class="marker" id="img-02234e32-406">
                <g transform="translate(37.49,25.62)" id="img-02234e32-407">
                  <circle cx="0" cy="0" r="0.9" class="primitive"/>
                </g>
              </g>
            </g>
            <g class="color_RGBA{Float32}(0.0f0,0.74736935f0,1.0f0,1.0f0)" fill-opacity="1" stroke="#FFFFFF" fill="#00BFFF" id="img-02234e32-408">
              <g class="marker" id="img-02234e32-409">
                <g transform="translate(51.53,23.55)" id="img-02234e32-410">
                  <circle cx="0" cy="0" r="0.9" class="primitive"/>
                </g>
              </g>
            </g>
            <g class="color_RGBA{Float32}(0.0f0,0.74736935f0,1.0f0,1.0f0)" fill-opacity="1" stroke="#FFFFFF" fill="#00BFFF" id="img-02234e32-411">
              <g class="marker" id="img-02234e32-412">
                <g transform="translate(59.96,29.75)" id="img-02234e32-413">
                  <circle cx="0" cy="0" r="0.9" class="primitive"/>
                </g>
              </g>
            </g>
            <g class="color_RGBA{Float32}(0.0f0,0.74736935f0,1.0f0,1.0f0)" fill-opacity="1" stroke="#FFFFFF" fill="#00BFFF" id="img-02234e32-414">
              <g class="marker" id="img-02234e32-415">
                <g transform="translate(51.53,21.48)" id="img-02234e32-416">
                  <circle cx="0" cy="0" r="0.9" class="primitive"/>
                </g>
              </g>
            </g>
            <g class="color_RGBA{Float32}(0.0f0,0.74736935f0,1.0f0,1.0f0)" fill-opacity="1" stroke="#FFFFFF" fill="#00BFFF" id="img-02234e32-417">
              <g class="marker" id="img-02234e32-418">
                <g transform="translate(68.39,21.48)" id="img-02234e32-419">
                  <circle cx="0" cy="0" r="0.9" class="primitive"/>
                </g>
              </g>
            </g>
            <g class="color_RGBA{Float32}(0.0f0,0.74736935f0,1.0f0,1.0f0)" fill-opacity="1" stroke="#FFFFFF" fill="#00BFFF" id="img-02234e32-420">
              <g class="marker" id="img-02234e32-421">
                <g transform="translate(51.53,27.69)" id="img-02234e32-422">
                  <circle cx="0" cy="0" r="0.9" class="primitive"/>
                </g>
              </g>
            </g>
            <g class="color_RGBA{Float32}(0.0f0,0.74736935f0,1.0f0,1.0f0)" fill-opacity="1" stroke="#FFFFFF" fill="#00BFFF" id="img-02234e32-423">
              <g class="marker" id="img-02234e32-424">
                <g transform="translate(59.96,19.41)" id="img-02234e32-425">
                  <circle cx="0" cy="0" r="0.9" class="primitive"/>
                </g>
              </g>
            </g>
            <g class="color_RGBA{Float32}(0.0f0,0.74736935f0,1.0f0,1.0f0)" fill-opacity="1" stroke="#FFFFFF" fill="#00BFFF" id="img-02234e32-426">
              <g class="marker" id="img-02234e32-427">
                <g transform="translate(68.39,9.07)" id="img-02234e32-428">
                  <circle cx="0" cy="0" r="0.9" class="primitive"/>
                </g>
              </g>
            </g>
            <g class="color_RGBA{Float32}(0.0f0,0.74736935f0,1.0f0,1.0f0)" fill-opacity="1" stroke="#FFFFFF" fill="#00BFFF" id="img-02234e32-429">
              <g class="marker" id="img-02234e32-430">
                <g transform="translate(71.2,17.34)" id="img-02234e32-431">
                  <circle cx="0" cy="0" r="0.9" class="primitive"/>
                </g>
              </g>
            </g>
            <g class="color_RGBA{Float32}(0.0f0,0.74736935f0,1.0f0,1.0f0)" fill-opacity="1" stroke="#FFFFFF" fill="#00BFFF" id="img-02234e32-432">
              <g class="marker" id="img-02234e32-433">
                <g transform="translate(29.06,38.03)" id="img-02234e32-434">
                  <circle cx="0" cy="0" r="0.9" class="primitive"/>
                </g>
              </g>
            </g>
            <g class="color_RGBA{Float32}(0.0f0,0.74736935f0,1.0f0,1.0f0)" fill-opacity="1" stroke="#FFFFFF" fill="#00BFFF" id="img-02234e32-435">
              <g class="marker" id="img-02234e32-436">
                <g transform="translate(43.11,38.03)" id="img-02234e32-437">
                  <circle cx="0" cy="0" r="0.9" class="primitive"/>
                </g>
              </g>
            </g>
            <g class="color_RGBA{Float32}(0.0f0,0.74736935f0,1.0f0,1.0f0)" fill-opacity="1" stroke="#FFFFFF" fill="#00BFFF" id="img-02234e32-438">
              <g class="marker" id="img-02234e32-439">
                <g transform="translate(43.11,29.75)" id="img-02234e32-440">
                  <circle cx="0" cy="0" r="0.9" class="primitive"/>
                </g>
              </g>
            </g>
            <g class="color_RGBA{Float32}(0.0f0,0.74736935f0,1.0f0,1.0f0)" fill-opacity="1" stroke="#FFFFFF" fill="#00BFFF" id="img-02234e32-441">
              <g class="marker" id="img-02234e32-442">
                <g transform="translate(59.96,23.55)" id="img-02234e32-443">
                  <circle cx="0" cy="0" r="0.9" class="primitive"/>
                </g>
              </g>
            </g>
            <g class="color_RGBA{Float32}(0.0f0,0.74736935f0,1.0f0,1.0f0)" fill-opacity="1" stroke="#FFFFFF" fill="#00BFFF" id="img-02234e32-444">
              <g class="marker" id="img-02234e32-445">
                <g transform="translate(45.91,35.96)" id="img-02234e32-446">
                  <circle cx="0" cy="0" r="0.9" class="primitive"/>
                </g>
              </g>
            </g>
            <g class="color_RGBA{Float32}(0.0f0,0.74736935f0,1.0f0,1.0f0)" fill-opacity="1" stroke="#FFFFFF" fill="#00BFFF" id="img-02234e32-447">
              <g class="marker" id="img-02234e32-448">
                <g transform="translate(31.87,40.1)" id="img-02234e32-449">
                  <circle cx="0" cy="0" r="0.9" class="primitive"/>
                </g>
              </g>
            </g>
            <g class="color_RGBA{Float32}(0.0f0,0.74736935f0,1.0f0,1.0f0)" fill-opacity="1" stroke="#FFFFFF" fill="#00BFFF" id="img-02234e32-450">
              <g class="marker" id="img-02234e32-451">
                <g transform="translate(48.72,29.75)" id="img-02234e32-452">
                  <circle cx="0" cy="0" r="0.9" class="primitive"/>
                </g>
              </g>
            </g>
            <g class="color_RGBA{Float32}(0.0f0,0.74736935f0,1.0f0,1.0f0)" fill-opacity="1" stroke="#FFFFFF" fill="#00BFFF" id="img-02234e32-453">
              <g class="marker" id="img-02234e32-454">
                <g transform="translate(37.49,29.75)" id="img-02234e32-455">
                  <circle cx="0" cy="0" r="0.9" class="primitive"/>
                </g>
              </g>
            </g>
            <g class="color_RGBA{Float32}(0.0f0,0.74736935f0,1.0f0,1.0f0)" fill-opacity="1" stroke="#FFFFFF" fill="#00BFFF" id="img-02234e32-456">
              <g class="marker" id="img-02234e32-457">
                <g transform="translate(59.96,19.41)" id="img-02234e32-458">
                  <circle cx="0" cy="0" r="0.9" class="primitive"/>
                </g>
              </g>
            </g>
            <g class="color_RGBA{Float32}(0.0f0,0.74736935f0,1.0f0,1.0f0)" fill-opacity="1" stroke="#FFFFFF" fill="#00BFFF" id="img-02234e32-459">
              <g class="marker" id="img-02234e32-460">
                <g transform="translate(48.72,25.62)" id="img-02234e32-461">
                  <circle cx="0" cy="0" r="0.9" class="primitive"/>
                </g>
              </g>
            </g>
            <g class="color_RGBA{Float32}(0.0f0,0.74736935f0,1.0f0,1.0f0)" fill-opacity="1" stroke="#FFFFFF" fill="#00BFFF" id="img-02234e32-462">
              <g class="marker" id="img-02234e32-463">
                <g transform="translate(37.49,35.96)" id="img-02234e32-464">
                  <circle cx="0" cy="0" r="0.9" class="primitive"/>
                </g>
              </g>
            </g>
            <g class="color_RGBA{Float32}(0.0f0,0.74736935f0,1.0f0,1.0f0)" fill-opacity="1" stroke="#FFFFFF" fill="#00BFFF" id="img-02234e32-465">
              <g class="marker" id="img-02234e32-466">
                <g transform="translate(40.3,33.89)" id="img-02234e32-467">
                  <circle cx="0" cy="0" r="0.9" class="primitive"/>
                </g>
              </g>
            </g>
            <g class="color_RGBA{Float32}(0.0f0,0.74736935f0,1.0f0,1.0f0)" fill-opacity="1" stroke="#FFFFFF" fill="#00BFFF" id="img-02234e32-468">
              <g class="marker" id="img-02234e32-469">
                <g transform="translate(45.91,38.03)" id="img-02234e32-470">
                  <circle cx="0" cy="0" r="0.9" class="primitive"/>
                </g>
              </g>
            </g>
            <g class="color_RGBA{Float32}(0.0f0,0.74736935f0,1.0f0,1.0f0)" fill-opacity="1" stroke="#FFFFFF" fill="#00BFFF" id="img-02234e32-471">
              <g class="marker" id="img-02234e32-472">
                <g transform="translate(51.53,27.69)" id="img-02234e32-473">
                  <circle cx="0" cy="0" r="0.9" class="primitive"/>
                </g>
              </g>
            </g>
          </g>
        </g>
      </g>
    </g>
  </g>
  <g class="guide ylabels" font-size="2.82" font-family="'PT Sans Caption','Helvetica Neue','Helvetica',sans-serif" fill="#6C606B" id="img-02234e32-474">
    <g transform="translate(17.63,58.72)" id="img-02234e32-475">
      <g class="primitive">
        <text text-anchor="end" dy="0.35em">2.0</text>
      </g>
    </g>
    <g transform="translate(17.63,48.37)" id="img-02234e32-476">
      <g class="primitive">
        <text text-anchor="end" dy="0.35em">2.5</text>
      </g>
    </g>
    <g transform="translate(17.63,38.03)" id="img-02234e32-477">
      <g class="primitive">
        <text text-anchor="end" dy="0.35em">3.0</text>
      </g>
    </g>
    <g transform="translate(17.63,27.69)" id="img-02234e32-478">
      <g class="primitive">
        <text text-anchor="end" dy="0.35em">3.5</text>
      </g>
    </g>
    <g transform="translate(17.63,17.34)" id="img-02234e32-479">
      <g class="primitive">
        <text text-anchor="end" dy="0.35em">4.0</text>
      </g>
    </g>
    <g transform="translate(17.63,7)" id="img-02234e32-480">
      <g class="primitive">
        <text text-anchor="end" dy="0.35em">4.5</text>
      </g>
    </g>
  </g>
  <g font-size="3.88" font-family="'PT Sans','Helvetica Neue','Helvetica',sans-serif" fill="#564A55" stroke="#000000" stroke-opacity="0.000" id="img-02234e32-481">
    <g transform="translate(8.81,30.86)" id="img-02234e32-482">
      <g class="primitive">
        <text text-anchor="middle" dy="0.35em" transform="rotate(-90,0, 2)">SepalWidth</text>
      </g>
    </g>
  </g>
</g>
<defs>
  <clipPath id="img-02234e32-4">
    <path d="M18.63,5 L 135 5 135 60.72 18.63 60.72" />
  </clipPath>
</defs>
</svg>
